<?xml version="1.0" ?>
<sdf version="1.5">
  <world name="chemistry_lab_world">

    <gui>
      <camera name="kitchen_camera">
	    <pose>-1 0.1 1.5 0 0.4 0</pose>
      </camera>
    </gui>

    <include>
      <uri>model://sun_vertical</uri>
    </include>

    <include>
      <uri>model://kitchen_floor</uri>
    </include>
    
     <include>
      <uri>model://chem_table</uri>
    </include> 

    <include>
        <uri>model://measuring_cylinder</uri>
        <pose>0.7 0.1 1.21 0.0 0.0 0.0</pose>
    </include>
    
     <include>
        <uri>model://test_tube_rack</uri>
        <pose>0.7 0.6 1.22 0.0 0.0 0.0</pose>
    </include>
    
    <include>
        <uri>model://test_tube</uri>
        <pose>0.72 0.56 1.3 0.0 0.0 0.0</pose>
    </include> 
    
        <include>
        <uri>model://test_tube</uri>
        <pose>0.72 0.52 1.3 0.0 0.0 0.0</pose>
    </include>
    
    <include>
        <uri>model://test_tube</uri>
        <pose>0.72 0.6 1.3 0.0 0.0 0.0</pose>
    </include>
    
    <include>
        <uri>model://test_tube</uri>
        <pose>0.68 0.64 1.3 0.0 0.0 0.0</pose>
	<name>TestTube1</name>
    </include>
    
        <include>
        <uri>model://test_tube_cork</uri>
        <pose>0.68 0.64 1.426 0.0 0.0 0.0</pose>
	<name>TestTubeCork1</name>
    </include> 
    
    <include>
        <uri>model://test_tube</uri>
        <pose>0.68 0.6 1.3 0.0 0.0 0.0</pose>
	<name>TestTube2</name>
    </include> 
    
    <include>
        <uri>model://test_tube_cork</uri>
        <pose>0.68 0.6 1.426 0.0 0.0 0.0</pose>
	<name>TestTubeCork2</name>
    </include>
   
    <include>
        <uri>model://berzelius</uri>
        <pose>0.30 0.1 0.85100 0.0 0.0 0.0</pose>
    </include>
    
    <include>
        <uri>model://conical_flask</uri>
        <pose>0.45 -0.3 0.85100 0.0 0.0 0.0</pose>
    </include>
    
    <include>
        <uri>model://flask_cork</uri>
        <pose>0.45 -0.3 1.038 0.0 0.0 0.0</pose>
	<name>FlaskCorkConical</name>
    </include>
    
    <include>
        <uri>model://florence_flask</uri>
        <pose>0.45 -0.5 0.85100 0.0 0.0 0.0</pose>
    </include>
    
    <include>
        <uri>model://flask_bottomed</uri>
        <pose>0.45 -0.7 0.85100 0.0 0.0 0.0</pose>
    </include> 
    
      <include>
        <uri>model://flask_cork</uri>
        <pose>0.45 -0.7 1.048 0.0 0.0 0.0</pose>
	<name>FlaskCorkBottomed</name>
    </include>
    
    
    <include>
        <uri>model://gas_jar</uri>
        <pose>0.35 0.8 0.85100 0.0 0.0 0.0</pose>
    </include> 
    
     <include>
        <uri>model://gas_jar_cork</uri>
        <pose>0.35 0.8 1.073 0.0 0.0 0.0</pose>
    </include> 
    
    <!--~HARD bodies cfm=erp=0, kp=kd=1000000000000
    ~SOFT bodies cfm=erp=1 or kp,kd  < 1
    <inertia> for spheres: (2*m*r^2)/5 -->
    
   <plugin name="SpawnLiquid" filename="libSpawnUnits.so">
	<modelName>LiquidTangibleThing</modelName>
	<geometry>sphere</geometry>
	<unitNr>60</unitNr>
	<spawnDiam>0.005</spawnDiam>
	<onTopOfModel>Berzelius</onTopOfModel>
	<onTopOffset>0 0 0.05</onTopOffset>
	<unitMass>0.0006</unitMass>
	<unitSize>0.009</unitSize>
	<inertiaVect>0.00005 0.00005 0.00005</inertiaVect>
	<cfm>2.0</cfm>	
	<erp>0.00000002</erp>
	<kp>100000000.8</kp>
	<kd>1.2</kd>
	<scriptsUri>file://media/materials/scripts/gazebo.material</scriptsUri>
	<scriptName>Gazebo/Red</scriptName>
	<static>0</static>
	<collideBitmask>0x03</collideBitmask>
    </plugin>

     <plugin name="GasJarCorkSimulation" filename="libCorkSimulation.so">
	<modelName1>GasJar</modelName1>
	<modelName2>GasJarCork</modelName2>
	<break_limit>9</break_limit>
     </plugin>
     
     <plugin name="ConicalFlaskCorkSimulation" filename="libCorkSimulation.so">
	<modelName1>ConicalFlask</modelName1>
	<modelName2>FlaskCorkConical</modelName2>
	<break_limit>9</break_limit>
     </plugin>

     <plugin name="FlaskBottomedCorkSimulation" filename="libCorkSimulation.so">
	<modelName1>FlaskBottomed</modelName1>
	<modelName2>FlaskCorkBottomed</modelName2>
	<break_limit>9</break_limit>
     </plugin>
     
     <plugin name="TestTubeCorkSimulation1" filename="libCorkSimulation.so">
	<modelName1>TestTube1</modelName1>
	<modelName2>TestTubeCork1</modelName2>
	<break_limit>9</break_limit>
     </plugin>
     
     <plugin name="TestTubeCorkSimulation2" filename="libCorkSimulation.so">
	<modelName1>TestTube2</modelName1>
	<modelName2>TestTubeCork2</modelName2>
	<break_limit>9</break_limit>
     </plugin>
    
  </world>
</sdf>